Preprocess metadata — clean_metadata • HDAnalyzeR
…
remove_na_cols
The columns to check for NAs and remove respective rows. Defaults is c("DAid", "Disease").

replace_w_na
The values to replace with NA. Default is c("Unknown", "unknown", "none", NA, "na").

    Value

    The preprocessed metadata.

    Examples

# Unprocessed metadata
example_metadata
#> # A tibble: 586 × 9
#>    DAid    Sample     Disease Stage   Grade Sex     Age   BMI Cohort
#>    <chr>   <chr>      <chr>   <chr>   <chr> <chr> <dbl> <dbl> <chr> 
#>  1 DA00001 AML_syn_1  AML     2       NA    F        76  25.8 UCAN  
#>  2 DA00002 AML_syn_2  AML     Unknown NA    M        55  23.7 UCAN  
#>  3 DA00003 AML_syn_3  AML     2       NA    F        51  33.2 UCAN  
#>  4 DA00004 AML_syn_4  AML     Unknown NA    M        86  32.4 UCAN  
#>  5 DA00005 AML_syn_5  AML     2       NA    F        69  32.8 UCAN  
#>  6 DA00006 AML_syn_6  AML     Unknown NA    M        88  29.5 UCAN  
#>  7 DA00007 AML_syn_7  AML     1       NA    F        80  32   UCAN  
#>  8 DA00008 AML_syn_8  AML     3       NA    F        83  30   UCAN  
#>  9 DA00009 AML_syn_9  AML     Unknown NA    M        52  26   UCAN  
#> 10 DA00010 AML_syn_10 AML     3       NA    M        44  23.1 UCAN  
#> # ℹ 576 more rows

# Preprocessed metadata
clean_metadata(example_metadata)
#> # A tibble: 586 × 5
#>    DAid    Disease Sex     Age   BMI
#>    <chr>   <chr>   <chr> <dbl> <dbl>
#>  1 DA00001 AML     F        76  25.8
#>  2 DA00002 AML     M        55  23.7
#>  3 DA00003 AML     F        51  33.2
#>  4 DA00004 AML     M        86  32.4
#>  5 DA00005 AML     F        69  32.8
#>  6 DA00006 AML     M        88  29.5
#>  7 DA00007 AML     F        80  32  
#>  8 DA00008 AML     F        83  30  
#>  9 DA00009 AML     M        52  26  
#> 10 DA00010 AML     M        44  23.1
#> # ℹ 576 more rows
…
