Elastic net classification model pipeline — do_elnet • HDAnalyzeR
…
#> • step_corr()
#> • step_impute_knn()
#> 
#> ── Model ───────────────────────────────────────────────────────────────────────
#> Logistic Regression Model Specification (classification)
#> 
#> Main Arguments:
#>   penalty = tune::tune()
#>   mixture = tune::tune()
#> 
#> Computational engine: glmnet 
#> 
#> 
#> $hypopt_res$train_set
#> # A tibble: 75 × 102
#>    DAid    AARSD1   ABL1  ACAA1   ACAN    ACE2  ACOX1    ACP5    ACP6  ACTA2
#>    <chr>    <dbl>  <dbl>  <dbl>  <dbl>   <dbl>  <dbl>   <dbl>   <dbl>  <dbl>
#>  1 DA00003  NA    NA     NA      0.989 NA       0.330  1.37   NA      NA    
#>  2 DA00004   3.41  3.38   1.69  NA      1.52   NA      0.841   0.582   1.70 
#>  3 DA00005   5.01  5.05   0.128  0.401 -0.933  -0.584  0.0265  1.16    2.73 
#>  4 DA00007  NA    NA      3.96   0.682  3.14    2.62   1.47    2.25    2.01 
#>  5 DA00008   2.78  0.812 -0.552  0.982 -0.101  -0.304  0.376  -0.826   1.52 
#>  6 DA00009   4.39  3.34  -0.452 -0.868  0.395   1.71   1.49   -0.0285  0.200
#>  7 DA00010   1.83  1.21  -0.912 -1.04  -0.0918 -0.304  1.69    0.0920  2.04 
#>  8 DA00011   3.48  4.96   3.50  -0.338  4.48    1.26   2.18    1.62    1.79 
#>  9 DA00012   4.31  0.710 -1.44  -0.218 -0.469  -0.361 -0.0714 -1.30    2.86 
#> 10 DA00013   1.31  2.52   1.11   0.997  4.56   -1.35   0.833   2.33    3.57 
#> # ℹ 65 more rows
#> # ℹ 92 more variables: ACTN4 <dbl>, ACY1 <dbl>, ADA <dbl>, ADA2 <dbl>,
#> #   ADAM15 <dbl>, ADAM23 <dbl>, ADAM8 <dbl>, ADAMTS13 <dbl>, ADAMTS15 <dbl>,
#> #   ADAMTS16 <dbl>, ADAMTS8 <dbl>, ADCYAP1R1 <dbl>, ADGRE2 <dbl>, ADGRE5 <dbl>,
#> #   ADGRG1 <dbl>, ADGRG2 <dbl>, ADH4 <dbl>, ADM <dbl>, AGER <dbl>, AGR2 <dbl>,
#> #   AGR3 <dbl>, AGRN <dbl>, AGRP <dbl>, AGXT <dbl>, AHCY <dbl>, AHSP <dbl>,
#> #   AIF1 <dbl>, AIFM1 <dbl>, AK1 <dbl>, AKR1B1 <dbl>, AKR1C4 <dbl>, …
#> 
#> $hypopt_res$test_set
#> # A tibble: 27 × 102
#>    DAid    AARSD1       ABL1  ACAA1    ACAN  ACE2   ACOX1   ACP5  ACP6 ACTA2
#>    <chr>    <dbl>      <dbl>  <dbl>   <dbl> <dbl>   <dbl>  <dbl> <dbl> <dbl>
#>  1 DA00001   3.39  2.76       1.71   0.0333 1.76  -0.919   1.54  2.15  2.81 
#>  2 DA00002   1.42  1.25      -0.816 -0.459  0.826 -0.902   0.647 1.30  0.798
#>  3 DA00006   6.83  1.18      -1.74  -0.156  1.53  -0.721   0.620 0.527 0.772
#>  4 DA00016   1.79  1.36       0.106 -0.372  3.40  -1.19    1.77  1.07  2.00 
#>  5 DA00022   7.07  5.67       3.68  -0.458  3.09   0.690   0.649 2.17  1.83 
#>  6 DA00023   2.92 -0.0000706  0.602  1.59   0.198  1.61    0.283 2.35  2.11 
#>  7 DA00034   3.45  2.91       1.31   0.423  0.647  1.40    0.691 0.720 1.95 
#>  8 DA00035   4.39  3.31       0.454  0.290  2.68   0.116  -1.32  0.945 2.14 
#>  9 DA00038   2.23  1.42       0.484  1.72   1.46   0.0747  1.82  0.109 4.27 
#> 10 DA00039   4.26  0.572     -1.97  -0.433  0.208  0.790  -0.236 1.52  0.652
#> # ℹ 17 more rows
#> # ℹ 92 more variables: ACTN4 <dbl>, ACY1 <dbl>, ADA <dbl>, ADA2 <dbl>,
#> #   ADAM15 <dbl>, ADAM23 <dbl>, ADAM8 <dbl>, ADAMTS13 <dbl>, ADAMTS15 <dbl>,
#> #   ADAMTS16 <dbl>, ADAMTS8 <dbl>, ADCYAP1R1 <dbl>, ADGRE2 <dbl>, ADGRE5 <dbl>,
#> #   ADGRG1 <dbl>, ADGRG2 <dbl>, ADH4 <dbl>, ADM <dbl>, AGER <dbl>, AGR2 <dbl>,
#> #   AGR3 <dbl>, AGRN <dbl>, AGRP <dbl>, AGXT <dbl>, AHCY <dbl>, AHSP <dbl>,
#> #   AIF1 <dbl>, AIFM1 <dbl>, AK1 <dbl>, AKR1B1 <dbl>, AKR1C4 <dbl>, …
…
#> 
#> 
#> $testfit_res$mixture
#> [1] 0.7519742
#> 
#> 
#> $var_imp_res
#> $var_imp_res$features
#> # A tibble: 30 × 4
#>    Variable Importance Sign  Scaled_Importance
#>    <fct>         <dbl> <chr>             <dbl>
#>  1 ADA           2.42  POS               100  
#>  2 ADGRG2        1.48  NEG                61.2
#>  3 ANGPT1        1.13  NEG                46.8
#>  4 AMIGO2        0.892 NEG                36.9
#>  5 ARHGAP25      0.835 NEG                34.6
#>  6 ADAMTS13      0.814 NEG                33.7
#>  7 ANGPTL2       0.795 POS                32.9
#>  8 AHCY          0.767 POS                31.7
#>  9 ADGRG1        0.743 POS                30.7
#> 10 ALPP          0.583 NEG                24.1
#> # ℹ 20 more rows
…
