Run differential expression analysis with limma — do_limma • HDAnalyzeR
…
    Examples

de_results <- do_limma(example_data,
                       example_metadata,
                       case = "AML",
                       control = c("CLL", "MYEL"),
                       wide = FALSE)
#> Comparing AML with CLL, MYEL.
#> Warning: 450 rows were removed because they contain NAs in Disease or Sex, Age!

# Results for AML
de_results$de_results
#> # A tibble: 100 × 11
#>    Assay     logFC   CI.L   CI.R AveExpr     t  P.Value adj.P.Val      B Disease
#>    <chr>     <dbl>  <dbl>  <dbl>   <dbl> <dbl>    <dbl>     <dbl>  <dbl> <chr>  
#>  1 ADA       1.33   0.966  1.70    1.46   7.16 4.54e-11   4.54e-9 14.7   AML    
#>  2 AZU1      1.77   1.24   2.31    0.592  6.58 8.73e-10   4.37e-8 11.8   AML    
#>  3 ANGPT1   -1.75  -2.35  -1.15    1.26  -5.79 4.87e- 8   1.62e-6  7.95  AML    
#>  4 ACP6     -0.786 -1.11  -0.459   1.36  -4.75 5.22e- 6   1.31e-4  3.43  AML    
#>  5 ARHGEF12 -1.30  -1.90  -0.709   3.38  -4.34 2.82e- 5   5.64e-4  1.83  AML    
#>  6 APP      -0.852 -1.26  -0.443   0.959 -4.13 6.46e- 5   1.08e-3  1.03  AML    
#>  7 ACAN     -0.630 -0.938 -0.322   0.596 -4.05 8.66e- 5   1.24e-3  0.737 AML    
#>  8 ATOX1    -0.933 -1.40  -0.467   3.23  -3.96 1.21e- 4   1.51e-3  0.445 AML    
#>  9 AGR2     -1.19  -1.83  -0.545   1.78  -3.66 3.70e- 4   4.11e-3 -0.618 AML    
#> 10 ANXA11   -0.692 -1.08  -0.304   0.973 -3.53 5.78e- 4   5.78e-3 -1.02  AML    
#> # ℹ 90 more rows
#> # ℹ 1 more variable: sig <chr>
…
