Run differential expression analysis with limma for continuous variable — do_limma_continuous • HDAnalyzeR
…
save
Save the volcano plots. Default is FALSE.

    Value

    A list with the differential expression results and volcano plots.
de_results: A list with the differential expression results.

volcano_plots: A list with the volcano plots.

    Examples

do_limma_continuous(example_data, example_metadata, "Age", wide = FALSE)
#> $de_results
#> # A tibble: 100 × 9
#>    Assay        logFC as.factor.Sex.F as.factor.Sex.M AveExpr     F   P.Value
#>    <chr>        <dbl>           <dbl>           <dbl>   <dbl> <dbl>     <dbl>
#>  1 ADAMTS15 -0.000149            3.05            2.89    2.99 1925. 2.47e-294
#>  2 AARSD1    0.00190             2.86            3.15    3.13 1573. 3.26e-272
#>  3 AKT1S1    0.00708             2.92            3.10    3.47 1424. 3.61e-261
#>  4 ATOX1     0.00975             2.27            2.43    2.97 1192. 5.98e-245
#>  5 ATG4A     0.00628             2.05            2.19    2.55 1174. 1.24e-241
#>  6 ADM       0.00223             1.74            1.67    1.87  982. 6.31e-227
#>  7 AK1       0.00128             2.18            2.33    2.34  777. 5.32e-201
#>  8 AKR1B1    0.00819             1.74            1.78    2.29  761. 1.48e-197
#>  9 ARHGEF12  0.00856             2.53            2.89    3.26  730. 7.16e-194
#> 10 ATP5IF1   0.00809             2.93            3.28    3.60  692. 3.77e-190
#> # ℹ 90 more rows
#> # ℹ 2 more variables: adj.P.Val <dbl>, sig <chr>
…
