Fit logistic regression model for single predictors — do_lreg • HDAnalyzeR
…
#> 4 Recipe Steps
#> 
#> • step_normalize()
#> • step_nzv()
#> • step_corr()
#> • step_impute_knn()
#> 
#> ── Model ───────────────────────────────────────────────────────────────────────
#> Logistic Regression Model Specification (classification)
#> 
#> Computational engine: glm 
#> 
#> 
#> $fit_res$train_set
#> # A tibble: 74 × 3
#>    DAid       ADA Disease
#>    <chr>    <dbl> <fct>  
#>  1 DA00003  0.952 1      
#>  2 DA00004  2.69  1      
#>  3 DA00005  3.75  1      
#>  4 DA00007  3.99  1      
#>  5 DA00008  2.83  1      
#>  6 DA00009  3.61  1      
#>  7 DA00010 -0.448 1      
#>  8 DA00011  2.42  1      
#>  9 DA00012  0.725 1      
#> 10 DA00013  1.13  1      
#> # ℹ 64 more rows
#> 
#> $fit_res$test_set
#> # A tibble: 26 × 3
#>    DAid        ADA Disease
#>    <chr>     <dbl> <fct>  
#>  1 DA00001  5.39   1      
#>  2 DA00002  0.0114 1      
#>  3 DA00006  2.03   1      
#>  4 DA00016  0.655  1      
#>  5 DA00022  5.71   1      
#>  6 DA00023  0.582  1      
#>  7 DA00034  0.510  1      
#>  8 DA00035  2.82   1      
#>  9 DA00038  1.66   1      
#> 10 DA00039 -0.959  1      
#> # ℹ 16 more rows
…
