Regularized multiclassification model pipeline — do_rreg_multi • HDAnalyzeR
…
#> • step_corr()
#> • step_impute_knn()
#> 
#> ── Model ───────────────────────────────────────────────────────────────────────
#> Multinomial Regression Model Specification (classification)
#> 
#> Main Arguments:
#>   penalty = tune::tune()
#>   mixture = 1
#> 
#> Computational engine: glmnet 
#> 
#> 
#> $hypopt_res$train_set
#> # A tibble: 439 × 102
#>    DAid    AARSD1   ABL1  ACAA1   ACAN    ACE2  ACOX1    ACP5    ACP6  ACTA2
#>    <chr>    <dbl>  <dbl>  <dbl>  <dbl>   <dbl>  <dbl>   <dbl>   <dbl>  <dbl>
#>  1 DA00003  NA    NA     NA      0.989 NA       0.330  1.37   NA      NA    
#>  2 DA00004   3.41  3.38   1.69  NA      1.52   NA      0.841   0.582   1.70 
#>  3 DA00005   5.01  5.05   0.128  0.401 -0.933  -0.584  0.0265  1.16    2.73 
#>  4 DA00006   6.83  1.18  -1.74  -0.156  1.53   -0.721  0.620   0.527   0.772
#>  5 DA00007  NA    NA      3.96   0.682  3.14    2.62   1.47    2.25    2.01 
#>  6 DA00008   2.78  0.812 -0.552  0.982 -0.101  -0.304  0.376  -0.826   1.52 
#>  7 DA00010   1.83  1.21  -0.912 -1.04  -0.0918 -0.304  1.69    0.0920  2.04 
#>  8 DA00011   3.48  4.96   3.50  -0.338  4.48    1.26   2.18    1.62    1.79 
#>  9 DA00012   4.31  0.710 -1.44  -0.218 -0.469  -0.361 -0.0714 -1.30    2.86 
#> 10 DA00013   1.31  2.52   1.11   0.997  4.56   -1.35   0.833   2.33    3.57 
#> # ℹ 429 more rows
#> # ℹ 92 more variables: ACTN4 <dbl>, ACY1 <dbl>, ADA <dbl>, ADA2 <dbl>,
#> #   ADAM15 <dbl>, ADAM23 <dbl>, ADAM8 <dbl>, ADAMTS13 <dbl>, ADAMTS15 <dbl>,
#> #   ADAMTS16 <dbl>, ADAMTS8 <dbl>, ADCYAP1R1 <dbl>, ADGRE2 <dbl>, ADGRE5 <dbl>,
#> #   ADGRG1 <dbl>, ADGRG2 <dbl>, ADH4 <dbl>, ADM <dbl>, AGER <dbl>, AGR2 <dbl>,
#> #   AGR3 <dbl>, AGRN <dbl>, AGRP <dbl>, AGXT <dbl>, AHCY <dbl>, AHSP <dbl>,
#> #   AIF1 <dbl>, AIFM1 <dbl>, AK1 <dbl>, AKR1B1 <dbl>, AKR1C4 <dbl>, …
#> 
#> $hypopt_res$test_set
#> # A tibble: 147 × 102
#>    DAid  AARSD1  ABL1  ACAA1    ACAN  ACE2   ACOX1   ACP5    ACP6 ACTA2    ACTN4
#>    <chr>  <dbl> <dbl>  <dbl>   <dbl> <dbl>   <dbl>  <dbl>   <dbl> <dbl>    <dbl>
#>  1 DA00…  3.39  2.76   1.71   0.0333 1.76  -0.919   1.54   2.15   2.81   0.742  
#>  2 DA00…  1.42  1.25  -0.816 -0.459  0.826 -0.902   0.647  1.30   0.798 -0.0659 
#>  3 DA00…  4.39  3.34  -0.452 -0.868  0.395  1.71    1.49  -0.0285 0.200 -0.532  
#>  4 DA00…  3.31  1.90  NA     -0.926  0.408  0.687   1.03   0.612  2.19   0.258  
#>  5 DA00…  1.46  0.832 -2.73  -0.371  2.27   0.0234  0.144  0.826  1.98  -0.280  
#>  6 DA00…  2.62  2.48   0.537 -0.215  1.82   0.290   1.27   1.11   0.206  1.23   
#>  7 DA00…  2.47  2.16  -0.486 NA      0.386 NA       1.38   0.536  1.86   0.00982
#>  8 DA00…  3.62  3.06  -1.34   0.965  1.05   1.53    0.152 -0.124  2.81   0.285  
#>  9 DA00…  4.39  3.31   0.454  0.290  2.68   0.116  -1.32   0.945  2.14  -0.00881
#> 10 DA00…  0.964 2.94   1.55   1.67   2.50   0.164   1.83   1.46   3.03   0.449  
#> # ℹ 137 more rows
#> # ℹ 91 more variables: ACY1 <dbl>, ADA <dbl>, ADA2 <dbl>, ADAM15 <dbl>,
#> #   ADAM23 <dbl>, ADAM8 <dbl>, ADAMTS13 <dbl>, ADAMTS15 <dbl>, ADAMTS16 <dbl>,
#> #   ADAMTS8 <dbl>, ADCYAP1R1 <dbl>, ADGRE2 <dbl>, ADGRE5 <dbl>, ADGRG1 <dbl>,
#> #   ADGRG2 <dbl>, ADH4 <dbl>, ADM <dbl>, AGER <dbl>, AGR2 <dbl>, AGR3 <dbl>,
#> #   AGRN <dbl>, AGRP <dbl>, AGXT <dbl>, AHCY <dbl>, AHSP <dbl>, AIF1 <dbl>,
#> #   AIFM1 <dbl>, AK1 <dbl>, AKR1B1 <dbl>, AKR1C4 <dbl>, AKT1S1 <dbl>, …
…
#> 
#> $var_imp_res
#> $var_imp_res$features
#> # A tibble: 63 × 4
#>    Variable Importance Sign  Scaled_Importance
#>    <fct>         <dbl> <chr>             <dbl>
#>  1 ANGPT1         5.23 NEG               100  
#>  2 AHCY           4.96 POS                94.8
#>  3 APEX1          4.40 POS                84.2
#>  4 AK1            2.84 NEG                54.3
#>  5 ARTN           2.61 POS                49.8
#>  6 APBB1IP        2.35 POS                45.0
#>  7 ADAM8          2.24 NEG                42.8
#>  8 ADAMTS16       1.98 NEG                37.9
#>  9 ACP5           1.98 NEG                37.8
#> 10 AMIGO2         1.97 NEG                37.6
#> # ℹ 53 more rows
…
