Run differential expression analysis with t-test — do_ttest • HDAnalyzeR
…
    Value

    A list with the differential expression results and volcano plots.
de_results: A list with the differential expression results.

volcano_plots: A list with the volcano plots.

    Examples

de_results <- do_ttest(example_data, example_metadata, wide = FALSE)

# Results for AML
de_results$de_results$AML
#> # A tibble: 100 × 6
#>    Assay    P.Value  logFC Disease     adj.P.Val sig             
#>    <chr>      <dbl>  <dbl> <chr>           <dbl> <chr>           
#>  1 ADA     2.52e-11  1.46  AML     0.00000000252 significant up  
#>  2 ANGPT1  6.18e- 9 -1.70  AML     0.000000241   significant down
#>  3 ANGPT2  7.24e- 9  0.795 AML     0.000000241   significant up  
#>  4 APEX1   2.04e- 7  1.30  AML     0.00000511    significant up  
#>  5 ADGRG1  7.43e- 7  1.27  AML     0.0000149     significant up  
#>  6 APBB1IP 2.58e- 6  1.16  AML     0.0000390     significant up  
#>  7 APP     2.73e- 6 -0.764 AML     0.0000390     significant down
#>  8 AZU1    1.54e- 5  1.64  AML     0.000193      significant up  
#>  9 AGRP    2.68e- 5  0.827 AML     0.000297      significant up  
#> 10 ARTN    6.99e- 5  1.09  AML     0.000699      significant up  
#> # ℹ 90 more rows
…
