Run UMAP analysis — do_umap • HDAnalyzeR
…
    A list with the UMAP results and, if requested, the UMAP plots.
umap_res: A tibble with the UMAP results.

umap_plot: A ggplot object with the data points on the 1st and 2nd UMAPs plane.

    Examples

do_umap(example_data,
       metadata = example_metadata,
       wide = FALSE,
       color = "Sex",
       palette = "sex_hpa")
#> $umap_res
#> # A tibble: 586 × 3
#>    DAid     UMAP1   UMAP2
#>    <fct>    <dbl>   <dbl>
#>  1 DA00001 -2.27   0.203 
#>  2 DA00002  1.58  -2.09  
#>  3 DA00003 -1.29   2.38  
#>  4 DA00004 -1.72   2.48  
#>  5 DA00005 -2.62   0.372 
#>  6 DA00006  1.53  -2.44  
#>  7 DA00007 -3.00   1.65  
#>  8 DA00008  1.86   0.713 
#>  9 DA00009 -0.807 -0.0701
#> 10 DA00010  1.44  -2.25  
#> # ℹ 576 more rows
…
