Summary of missing values — na_search • HDAnalyzeR
…
#> $na_data
#> # A tibble: 3,600 × 5
#>    Age_bin Disease Categories Assay  NA_percentage
#>    <fct>   <chr>   <chr>      <chr>          <dbl>
#>  1 41-60   AML     41-60_AML  AARSD1             5
#>  2 41-60   AML     41-60_AML  ABL1               5
#>  3 41-60   AML     41-60_AML  ACAA1              5
#>  4 41-60   AML     41-60_AML  ACAN               5
#>  5 41-60   AML     41-60_AML  ACE2               0
#>  6 41-60   AML     41-60_AML  ACOX1              5
#>  7 41-60   AML     41-60_AML  ACP5               0
#>  8 41-60   AML     41-60_AML  ACP6               0
#>  9 41-60   AML     41-60_AML  ACTA2              0
#> 10 41-60   AML     41-60_AML  ACTN4              0
#> # ℹ 3,590 more rows
…
