Plot features summary visualizations — plot_features_summary • HDAnalyzeR
…
#> 
#> $features_df
#> # A tibble: 49 × 3
#>    `Shared in` `up/down` Assay   
#>    <chr>       <chr>     <chr>   
#>  1 AML         up        ABL1    
#>  2 PRC         up        ACAN    
#>  3 AML&PRC     up        ACP6    
#>  4 AML&BRC     up        ACTA2   
#>  5 BRC         up        ACTN4   
#>  6 AML&BRC&PRC up        ADA     
#>  7 BRC         up        ADAMTS13
#>  8 BRC         up        ADAMTS15
#>  9 AML         up        ADAMTS8 
#> 10 AML&PRC     up        ADGRE2  
#> # ℹ 39 more rows
…
