Plot summary visualizations for the differential expression results — plot_de_summary • HDAnalyzeR
…
#> 
#> $proteins_df_up
#> # A tibble: 35 × 3
#>    `Shared in` `up/down` Assay   
#>    <chr>       <chr>     <chr>   
#>  1 AML         up        ABL1    
#>  2 PRC         up        ACAN    
#>  3 AML         up        ACE2    
#>  4 AML         up        ACTA2   
#>  5 AML         up        ADA     
#>  6 AML         up        ADA2    
#>  7 BRC         up        ADAMTS13
#>  8 BRC&PRC     up        ADAMTS8 
#>  9 AML         up        ADGRG1  
#> 10 BRC&PRC     up        ADGRG2  
#> # ℹ 25 more rows
#> 
#> $proteins_df_down
#> # A tibble: 35 × 3
#>    `Shared in` `up/down` Assay   
#>    <chr>       <chr>     <chr>   
#>  1 BRC         up        ABL1    
#>  2 AML         up        ACAN    
#>  3 BRC         up        ACE2    
#>  4 BRC&PRC     up        ACTA2   
#>  5 BRC&PRC     up        ADA     
#>  6 BRC         up        ADA2    
#>  7 AML         up        ADAMTS13
#>  8 AML         up        ADAMTS8 
#>  9 BRC         up        ADGRE5  
#> 10 BRC&PRC     up        ADGRG1  
#> # ℹ 25 more rows
…
