Summarize the quality control results of metadata — qc_summary_metadata • HDAnalyzeR
…
#> [1] "Note: In case of long output, only the first 10 rows are shown. To see the rest display the object with view()"
#> [1] "Number of samples: 586"
#> [1] "Number of variables: 8"
#> [1] "--------------------------------------"
#> [1] "character : 7"
#> [1] "numeric : 2"
#> [1] "--------------------------------------"
#> [1] "NA percentage in each column:"
#> # A tibble: 1 × 2
#>   column na_percentage
#>   <chr>          <dbl>
#> 1 Grade           91.5
#> [1] "--------------------------------------"
#> [1] "NA percentage in each row:"
#> # A tibble: 536 × 2
#>    DAid    na_percentage
#>    <chr>           <dbl>
#>  1 DA00001          11.1
#>  2 DA00002          11.1
#>  3 DA00003          11.1
#>  4 DA00004          11.1
#>  5 DA00005          11.1
#>  6 DA00006          11.1
#>  7 DA00007          11.1
#>  8 DA00008          11.1
#>  9 DA00009          11.1
#> 10 DA00010          11.1
#> # ℹ 526 more rows
…
