Classification Models • HDAnalyzeR
…
#> • step_corr()
#> • step_impute_knn()
#> 
#> ── Model ───────────────────────────────────────────────────────────────────────
#> Logistic Regression Model Specification (classification)
#> 
#> Main Arguments:
#>   penalty = tune::tune()
#>   mixture = 1
#> 
#> Computational engine: glmnet 
#> 
#> 
#> $hypopt_res$train_set
#> # A tibble: 76 × 102
#>    DAid    AARSD1   ABL1  ACAA1   ACAN    ACE2  ACOX1    ACP5    ACP6  ACTA2
#>    <chr>    <dbl>  <dbl>  <dbl>  <dbl>   <dbl>  <dbl>   <dbl>   <dbl>  <dbl>
#>  1 DA00003  NA    NA     NA      0.989 NA       0.330  1.37   NA      NA    
#>  2 DA00004   3.41  3.38   1.69  NA      1.52   NA      0.841   0.582   1.70 
#>  3 DA00005   5.01  5.05   0.128  0.401 -0.933  -0.584  0.0265  1.16    2.73 
#>  4 DA00007  NA    NA      3.96   0.682  3.14    2.62   1.47    2.25    2.01 
#>  5 DA00008   2.78  0.812 -0.552  0.982 -0.101  -0.304  0.376  -0.826   1.52 
#>  6 DA00009   4.39  3.34  -0.452 -0.868  0.395   1.71   1.49   -0.0285  0.200
#>  7 DA00010   1.83  1.21  -0.912 -1.04  -0.0918 -0.304  1.69    0.0920  2.04 
#>  8 DA00011   3.48  4.96   3.50  -0.338  4.48    1.26   2.18    1.62    1.79 
#>  9 DA00012   4.31  0.710 -1.44  -0.218 -0.469  -0.361 -0.0714 -1.30    2.86 
#> 10 DA00013   1.31  2.52   1.11   0.997  4.56   -1.35   0.833   2.33    3.57 
#> # ℹ 66 more rows
#> # ℹ 92 more variables: ACTN4 <dbl>, ACY1 <dbl>, ADA <dbl>, ADA2 <dbl>,
#> #   ADAM15 <dbl>, ADAM23 <dbl>, ADAM8 <dbl>, ADAMTS13 <dbl>, ADAMTS15 <dbl>,
#> #   ADAMTS16 <dbl>, ADAMTS8 <dbl>, ADCYAP1R1 <dbl>, ADGRE2 <dbl>, ADGRE5 <dbl>,
#> #   ADGRG1 <dbl>, ADGRG2 <dbl>, ADH4 <dbl>, ADM <dbl>, AGER <dbl>, AGR2 <dbl>,
#> #   AGR3 <dbl>, AGRN <dbl>, AGRP <dbl>, AGXT <dbl>, AHCY <dbl>, AHSP <dbl>,
#> #   AIF1 <dbl>, AIFM1 <dbl>, AK1 <dbl>, AKR1B1 <dbl>, AKR1C4 <dbl>, …
#> 
#> $hypopt_res$test_set
#> # A tibble: 28 × 102
#>    DAid    AARSD1       ABL1  ACAA1    ACAN  ACE2   ACOX1   ACP5  ACP6 ACTA2
#>    <chr>    <dbl>      <dbl>  <dbl>   <dbl> <dbl>   <dbl>  <dbl> <dbl> <dbl>
#>  1 DA00001   3.39  2.76       1.71   0.0333 1.76  -0.919   1.54  2.15  2.81 
#>  2 DA00002   1.42  1.25      -0.816 -0.459  0.826 -0.902   0.647 1.30  0.798
#>  3 DA00006   6.83  1.18      -1.74  -0.156  1.53  -0.721   0.620 0.527 0.772
#>  4 DA00016   1.79  1.36       0.106 -0.372  3.40  -1.19    1.77  1.07  2.00 
#>  5 DA00022   7.07  5.67       3.68  -0.458  3.09   0.690   0.649 2.17  1.83 
#>  6 DA00023   2.92 -0.0000706  0.602  1.59   0.198  1.61    0.283 2.35  2.11 
#>  7 DA00034   3.45  2.91       1.31   0.423  0.647  1.40    0.691 0.720 1.95 
#>  8 DA00035   4.39  3.31       0.454  0.290  2.68   0.116  -1.32  0.945 2.14 
#>  9 DA00038   2.23  1.42       0.484  1.72   1.46   0.0747  1.82  0.109 4.27 
#> 10 DA00039   4.26  0.572     -1.97  -0.433  0.208  0.790  -0.236 1.52  0.652
#> # ℹ 18 more rows
#> # ℹ 92 more variables: ACTN4 <dbl>, ACY1 <dbl>, ADA <dbl>, ADA2 <dbl>,
#> #   ADAM15 <dbl>, ADAM23 <dbl>, ADAM8 <dbl>, ADAMTS13 <dbl>, ADAMTS15 <dbl>,
#> #   ADAMTS16 <dbl>, ADAMTS8 <dbl>, ADCYAP1R1 <dbl>, ADGRE2 <dbl>, ADGRE5 <dbl>,
#> #   ADGRG1 <dbl>, ADGRG2 <dbl>, ADH4 <dbl>, ADM <dbl>, AGER <dbl>, AGR2 <dbl>,
#> #   AGR3 <dbl>, AGRN <dbl>, AGRP <dbl>, AGXT <dbl>, AHCY <dbl>, AHSP <dbl>,
#> #   AIF1 <dbl>, AIFM1 <dbl>, AK1 <dbl>, AKR1B1 <dbl>, AKR1C4 <dbl>, …
…
#> 
#> 
#> $testfit_res$mixture
#> [1] 1
#> 
#> 
#> $var_imp_res
#> $var_imp_res$features
#> # A tibble: 33 × 4
#>    Variable Importance Sign  Scaled_Importance
#>    <fct>         <dbl> <chr>             <dbl>
#>  1 ANGPTL2       2.87  POS               100  
#>  2 ADA           1.49  POS                52.0
#>  3 AMIGO2        1.26  NEG                43.9
#>  4 ACP6          1.22  NEG                42.7
#>  5 ACAN          1.11  NEG                38.7
#>  6 ARSB          1.10  POS                38.3
#>  7 ADGRG1        0.930 POS                32.4
#>  8 AK1           0.879 NEG                30.7
#>  9 ANXA11        0.785 NEG                27.4
#> 10 ACY1          0.781 NEG                27.2
#> # ℹ 23 more rows
…
#> • step_corr()
#> • step_impute_knn()
#> 
#> ── Model ───────────────────────────────────────────────────────────────────────
#> Logistic Regression Model Specification (classification)
#> 
#> Main Arguments:
#>   penalty = tune::tune()
#>   mixture = tune::tune()
#> 
#> Computational engine: glmnet 
#> 
#> 
#> $hypopt_res$train_set
#> # A tibble: 76 × 102
#>    DAid    AARSD1   ABL1  ACAA1   ACAN    ACE2  ACOX1    ACP5    ACP6  ACTA2
#>    <chr>    <dbl>  <dbl>  <dbl>  <dbl>   <dbl>  <dbl>   <dbl>   <dbl>  <dbl>
#>  1 DA00003  NA    NA     NA      0.989 NA       0.330  1.37   NA      NA    
#>  2 DA00004   3.41  3.38   1.69  NA      1.52   NA      0.841   0.582   1.70 
#>  3 DA00005   5.01  5.05   0.128  0.401 -0.933  -0.584  0.0265  1.16    2.73 
#>  4 DA00007  NA    NA      3.96   0.682  3.14    2.62   1.47    2.25    2.01 
#>  5 DA00008   2.78  0.812 -0.552  0.982 -0.101  -0.304  0.376  -0.826   1.52 
#>  6 DA00009   4.39  3.34  -0.452 -0.868  0.395   1.71   1.49   -0.0285  0.200
#>  7 DA00010   1.83  1.21  -0.912 -1.04  -0.0918 -0.304  1.69    0.0920  2.04 
#>  8 DA00011   3.48  4.96   3.50  -0.338  4.48    1.26   2.18    1.62    1.79 
#>  9 DA00012   4.31  0.710 -1.44  -0.218 -0.469  -0.361 -0.0714 -1.30    2.86 
#> 10 DA00013   1.31  2.52   1.11   0.997  4.56   -1.35   0.833   2.33    3.57 
#> # ℹ 66 more rows
#> # ℹ 92 more variables: ACTN4 <dbl>, ACY1 <dbl>, ADA <dbl>, ADA2 <dbl>,
#> #   ADAM15 <dbl>, ADAM23 <dbl>, ADAM8 <dbl>, ADAMTS13 <dbl>, ADAMTS15 <dbl>,
#> #   ADAMTS16 <dbl>, ADAMTS8 <dbl>, ADCYAP1R1 <dbl>, ADGRE2 <dbl>, ADGRE5 <dbl>,
#> #   ADGRG1 <dbl>, ADGRG2 <dbl>, ADH4 <dbl>, ADM <dbl>, AGER <dbl>, AGR2 <dbl>,
#> #   AGR3 <dbl>, AGRN <dbl>, AGRP <dbl>, AGXT <dbl>, AHCY <dbl>, AHSP <dbl>,
#> #   AIF1 <dbl>, AIFM1 <dbl>, AK1 <dbl>, AKR1B1 <dbl>, AKR1C4 <dbl>, …
#> 
#> $hypopt_res$test_set
#> # A tibble: 28 × 102
#>    DAid    AARSD1       ABL1  ACAA1    ACAN  ACE2   ACOX1   ACP5  ACP6 ACTA2
#>    <chr>    <dbl>      <dbl>  <dbl>   <dbl> <dbl>   <dbl>  <dbl> <dbl> <dbl>
#>  1 DA00001   3.39  2.76       1.71   0.0333 1.76  -0.919   1.54  2.15  2.81 
#>  2 DA00002   1.42  1.25      -0.816 -0.459  0.826 -0.902   0.647 1.30  0.798
#>  3 DA00006   6.83  1.18      -1.74  -0.156  1.53  -0.721   0.620 0.527 0.772
#>  4 DA00016   1.79  1.36       0.106 -0.372  3.40  -1.19    1.77  1.07  2.00 
#>  5 DA00022   7.07  5.67       3.68  -0.458  3.09   0.690   0.649 2.17  1.83 
#>  6 DA00023   2.92 -0.0000706  0.602  1.59   0.198  1.61    0.283 2.35  2.11 
#>  7 DA00034   3.45  2.91       1.31   0.423  0.647  1.40    0.691 0.720 1.95 
#>  8 DA00035   4.39  3.31       0.454  0.290  2.68   0.116  -1.32  0.945 2.14 
#>  9 DA00038   2.23  1.42       0.484  1.72   1.46   0.0747  1.82  0.109 4.27 
#> 10 DA00039   4.26  0.572     -1.97  -0.433  0.208  0.790  -0.236 1.52  0.652
#> # ℹ 18 more rows
#> # ℹ 92 more variables: ACTN4 <dbl>, ACY1 <dbl>, ADA <dbl>, ADA2 <dbl>,
#> #   ADAM15 <dbl>, ADAM23 <dbl>, ADAM8 <dbl>, ADAMTS13 <dbl>, ADAMTS15 <dbl>,
#> #   ADAMTS16 <dbl>, ADAMTS8 <dbl>, ADCYAP1R1 <dbl>, ADGRE2 <dbl>, ADGRE5 <dbl>,
#> #   ADGRG1 <dbl>, ADGRG2 <dbl>, ADH4 <dbl>, ADM <dbl>, AGER <dbl>, AGR2 <dbl>,
#> #   AGR3 <dbl>, AGRN <dbl>, AGRP <dbl>, AGXT <dbl>, AHCY <dbl>, AHSP <dbl>,
#> #   AIF1 <dbl>, AIFM1 <dbl>, AK1 <dbl>, AKR1B1 <dbl>, AKR1C4 <dbl>, …
…
#> 
#> 
#> $testfit_res$mixture
#> [1] 0.8642857
#> 
#> 
#> $var_imp_res
#> $var_imp_res$features
#> # A tibble: 34 × 4
#>    Variable Importance Sign  Scaled_Importance
#>    <fct>         <dbl> <chr>             <dbl>
#>  1 ANGPTL2       2.37  POS               100  
#>  2 ADA           1.60  POS                67.7
#>  3 AMIGO2        1.16  NEG                49.1
#>  4 ACP6          1.06  NEG                44.7
#>  5 ACAN          1.03  NEG                43.7
#>  6 AK1           0.938 NEG                39.7
#>  7 ADGRG1        0.911 POS                38.5
#>  8 ACY1          0.898 NEG                37.9
#>  9 AARSD1        0.847 NEG                35.8
#> 10 ANXA11        0.756 NEG                32.0
#> # ℹ 24 more rows
…
#> Random Forest Model Specification (classification)
#> 
#> Main Arguments:
#>   mtry = tune::tune()
#>   trees = 1000
#>   min_n = tune::tune()
#> 
#> Engine-Specific Arguments:
#>   importance = permutation
#> 
#> Computational engine: ranger 
#> 
#> 
#> $hypopt_res$train_set
#> # A tibble: 548 × 102
#>    DAid    AARSD1       ABL1  ACAA1    ACAN   ACE2   ACOX1    ACP5   ACP6 ACTA2
#>    <chr>    <dbl>      <dbl>  <dbl>   <dbl>  <dbl>   <dbl>   <dbl>  <dbl> <dbl>
#>  1 DA00001   3.39  2.76       1.71   0.0333  1.76  -0.919   1.54    2.15   2.81
#>  2 DA00003  NA    NA         NA      0.989  NA      0.330   1.37   NA     NA   
#>  3 DA00007  NA    NA          3.96   0.682   3.14   2.62    1.47    2.25   2.01
#>  4 DA00008   2.78  0.812     -0.552  0.982  -0.101 -0.304   0.376  -0.826  1.52
#>  5 DA00012   4.31  0.710     -1.44  -0.218  -0.469 -0.361  -0.0714 -1.30   2.86
#>  6 DA00019   3.59  3.38       1.79  -0.303   1.59   0.604   1.71   -0.837  1.65
#>  7 DA00020   1.80  1.70       2.77  -1.04    1.33  -0.0247  1.02    0.112  2.58
#>  8 DA00021   6.28  6.57       1.62   0.650   0.392  0.113   1.09    1.07   2.07
#>  9 DA00023   2.92 -0.0000706  0.602  1.59    0.198  1.61    0.283   2.35   2.11
#> 10 DA00025   3.68  2.71       2.36   0.445   1.37   0.955  -0.324   1.51   1.82
#> # ℹ 538 more rows
#> # ℹ 92 more variables: ACTN4 <dbl>, ACY1 <dbl>, ADA <dbl>, ADA2 <dbl>,
#> #   ADAM15 <dbl>, ADAM23 <dbl>, ADAM8 <dbl>, ADAMTS13 <dbl>, ADAMTS15 <dbl>,
#> #   ADAMTS16 <dbl>, ADAMTS8 <dbl>, ADCYAP1R1 <dbl>, ADGRE2 <dbl>, ADGRE5 <dbl>,
#> #   ADGRG1 <dbl>, ADGRG2 <dbl>, ADH4 <dbl>, ADM <dbl>, AGER <dbl>, AGR2 <dbl>,
#> #   AGR3 <dbl>, AGRN <dbl>, AGRP <dbl>, AGXT <dbl>, AHCY <dbl>, AHSP <dbl>,
#> #   AIF1 <dbl>, AIFM1 <dbl>, AK1 <dbl>, AKR1B1 <dbl>, AKR1C4 <dbl>, …
#> 
#> $hypopt_res$test_set
#> # A tibble: 184 × 102
#>    DAid  AARSD1  ABL1   ACAA1   ACAN   ACE2   ACOX1    ACP5  ACP6 ACTA2    ACTN4
#>    <chr>  <dbl> <dbl>   <dbl>  <dbl>  <dbl>   <dbl>   <dbl> <dbl> <dbl>    <dbl>
#>  1 DA00…   5.01  5.05  0.128   0.401 -0.933 -0.584   0.0265 1.16   2.73  0.350  
#>  2 DA00…   3.48  4.96  3.50   -0.338  4.48   1.26    2.18   1.62   1.79  0.233  
#>  3 DA00…   1.79  1.36  0.106  -0.372  3.40  -1.19    1.77   1.07   2.00  0.980  
#>  4 DA00…   7.07  5.67  3.68   -0.458  3.09   0.690   0.649  2.17   1.83  1.02   
#>  5 DA00…   2.47  2.16 -0.486  NA      0.386 NA       1.38   0.536  1.86  0.00982
#>  6 DA00…   3.31  5.38  4.82    0.266  0.606  3.12    1.22   2.13   1.34 -0.277  
#>  7 DA00…   3.45  2.91  1.31    0.423  0.647  1.40    0.691  0.720  1.95  1.52   
#>  8 DA00…   4.39  3.31  0.454   0.290  2.68   0.116  -1.32   0.945  2.14 -0.00881
#>  9 DA00…   2.19  1.66 -0.0167 -0.567  3.77   0.369   1.38   1.09   2.09  0.0279 
#> 10 DA00…   1.75  1.77  1.62   -0.165 -0.292 -0.0779  0.934  0.229  1.80 -0.392  
#> # ℹ 174 more rows
#> # ℹ 91 more variables: ACY1 <dbl>, ADA <dbl>, ADA2 <dbl>, ADAM15 <dbl>,
#> #   ADAM23 <dbl>, ADAM8 <dbl>, ADAMTS13 <dbl>, ADAMTS15 <dbl>, ADAMTS16 <dbl>,
#> #   ADAMTS8 <dbl>, ADCYAP1R1 <dbl>, ADGRE2 <dbl>, ADGRE5 <dbl>, ADGRG1 <dbl>,
#> #   ADGRG2 <dbl>, ADH4 <dbl>, ADM <dbl>, AGER <dbl>, AGR2 <dbl>, AGR3 <dbl>,
#> #   AGRN <dbl>, AGRP <dbl>, AGXT <dbl>, AHCY <dbl>, AHSP <dbl>, AIF1 <dbl>,
#> #   AIFM1 <dbl>, AK1 <dbl>, AKR1B1 <dbl>, AKR1C4 <dbl>, AKT1S1 <dbl>, …
…
#> 
#> 
#> $testfit_res$mixture
#> [1] NA
#> 
#> 
#> $var_imp_res
#> $var_imp_res$features
#> # A tibble: 99 × 3
#>    Variable Importance Scaled_Importance
#>    <fct>         <dbl>             <dbl>
#>  1 ATXN10       0.0291             100  
#>  2 ALPP         0.0233              79.1
#>  3 B4GALT1      0.0223              75.2
#>  4 ART3         0.0151              49.1
#>  5 ACE2         0.0141              45.4
#>  6 APBB1IP      0.0138              44.3
#>  7 AARSD1       0.0106              32.8
#>  8 ANGPTL3      0.0103              31.6
#>  9 AMIGO2       0.0102              31.1
#> 10 AGER         0.0101              30.7
#> # ℹ 89 more rows
…
#> 4 Recipe Steps
#> 
#> • step_normalize()
#> • step_nzv()
#> • step_corr()
#> • step_impute_knn()
#> 
#> ── Model ───────────────────────────────────────────────────────────────────────
#> Logistic Regression Model Specification (classification)
#> 
#> Computational engine: glm 
#> 
#> 
#> $fit_res$train_set
#> # A tibble: 71 × 3
#>    DAid    ANGPTL2 Disease
#>    <chr>     <dbl> <fct>  
#>  1 DA00003   2.80  1      
#>  2 DA00004   1.92  1      
#>  3 DA00005   2.05  1      
#>  4 DA00007   2.18  1      
#>  5 DA00008   2.10  1      
#>  6 DA00009   2.27  1      
#>  7 DA00010   0.435 1      
#>  8 DA00011   2.81  1      
#>  9 DA00012   0.595 1      
#> 10 DA00013   1.94  1      
#> # ℹ 61 more rows
#> 
#> $fit_res$test_set
#> # A tibble: 30 × 3
#>    DAid    ANGPTL2 Disease
#>    <chr>     <dbl> <fct>  
#>  1 DA00001  1.51   1      
#>  2 DA00002  1.53   1      
#>  3 DA00006  0.554  1      
#>  4 DA00016  0.560  1      
#>  5 DA00018  1.08   1      
#>  6 DA00020  1.47   1      
#>  7 DA00022  1.11   1      
#>  8 DA00023  0.0924 1      
#>  9 DA00034 NA      1      
#> 10 DA00035 -0.607  1      
#> # ℹ 20 more rows
…
#> • step_corr()
#> • step_impute_knn()
#> 
#> ── Model ───────────────────────────────────────────────────────────────────────
#> Multinomial Regression Model Specification (classification)
#> 
#> Main Arguments:
#>   penalty = tune::tune()
#>   mixture = tune::tune()
#> 
#> Computational engine: glmnet 
#> 
#> 
#> $hypopt_res$train_set
#> # A tibble: 439 × 102
#>    DAid    AARSD1   ABL1  ACAA1   ACAN    ACE2  ACOX1    ACP5    ACP6  ACTA2
#>    <chr>    <dbl>  <dbl>  <dbl>  <dbl>   <dbl>  <dbl>   <dbl>   <dbl>  <dbl>
#>  1 DA00003  NA    NA     NA      0.989 NA       0.330  1.37   NA      NA    
#>  2 DA00004   3.41  3.38   1.69  NA      1.52   NA      0.841   0.582   1.70 
#>  3 DA00005   5.01  5.05   0.128  0.401 -0.933  -0.584  0.0265  1.16    2.73 
#>  4 DA00006   6.83  1.18  -1.74  -0.156  1.53   -0.721  0.620   0.527   0.772
#>  5 DA00007  NA    NA      3.96   0.682  3.14    2.62   1.47    2.25    2.01 
#>  6 DA00008   2.78  0.812 -0.552  0.982 -0.101  -0.304  0.376  -0.826   1.52 
#>  7 DA00010   1.83  1.21  -0.912 -1.04  -0.0918 -0.304  1.69    0.0920  2.04 
#>  8 DA00011   3.48  4.96   3.50  -0.338  4.48    1.26   2.18    1.62    1.79 
#>  9 DA00012   4.31  0.710 -1.44  -0.218 -0.469  -0.361 -0.0714 -1.30    2.86 
#> 10 DA00013   1.31  2.52   1.11   0.997  4.56   -1.35   0.833   2.33    3.57 
#> # ℹ 429 more rows
#> # ℹ 92 more variables: ACTN4 <dbl>, ACY1 <dbl>, ADA <dbl>, ADA2 <dbl>,
#> #   ADAM15 <dbl>, ADAM23 <dbl>, ADAM8 <dbl>, ADAMTS13 <dbl>, ADAMTS15 <dbl>,
#> #   ADAMTS16 <dbl>, ADAMTS8 <dbl>, ADCYAP1R1 <dbl>, ADGRE2 <dbl>, ADGRE5 <dbl>,
#> #   ADGRG1 <dbl>, ADGRG2 <dbl>, ADH4 <dbl>, ADM <dbl>, AGER <dbl>, AGR2 <dbl>,
#> #   AGR3 <dbl>, AGRN <dbl>, AGRP <dbl>, AGXT <dbl>, AHCY <dbl>, AHSP <dbl>,
#> #   AIF1 <dbl>, AIFM1 <dbl>, AK1 <dbl>, AKR1B1 <dbl>, AKR1C4 <dbl>, …
#> 
#> $hypopt_res$test_set
#> # A tibble: 147 × 102
#>    DAid  AARSD1  ABL1  ACAA1    ACAN  ACE2   ACOX1   ACP5    ACP6 ACTA2    ACTN4
#>    <chr>  <dbl> <dbl>  <dbl>   <dbl> <dbl>   <dbl>  <dbl>   <dbl> <dbl>    <dbl>
#>  1 DA00…  3.39  2.76   1.71   0.0333 1.76  -0.919   1.54   2.15   2.81   0.742  
#>  2 DA00…  1.42  1.25  -0.816 -0.459  0.826 -0.902   0.647  1.30   0.798 -0.0659 
#>  3 DA00…  4.39  3.34  -0.452 -0.868  0.395  1.71    1.49  -0.0285 0.200 -0.532  
#>  4 DA00…  3.31  1.90  NA     -0.926  0.408  0.687   1.03   0.612  2.19   0.258  
#>  5 DA00…  1.46  0.832 -2.73  -0.371  2.27   0.0234  0.144  0.826  1.98  -0.280  
#>  6 DA00…  2.62  2.48   0.537 -0.215  1.82   0.290   1.27   1.11   0.206  1.23   
#>  7 DA00…  2.47  2.16  -0.486 NA      0.386 NA       1.38   0.536  1.86   0.00982
#>  8 DA00…  3.62  3.06  -1.34   0.965  1.05   1.53    0.152 -0.124  2.81   0.285  
#>  9 DA00…  4.39  3.31   0.454  0.290  2.68   0.116  -1.32   0.945  2.14  -0.00881
#> 10 DA00…  0.964 2.94   1.55   1.67   2.50   0.164   1.83   1.46   3.03   0.449  
#> # ℹ 137 more rows
#> # ℹ 91 more variables: ACY1 <dbl>, ADA <dbl>, ADA2 <dbl>, ADAM15 <dbl>,
#> #   ADAM23 <dbl>, ADAM8 <dbl>, ADAMTS13 <dbl>, ADAMTS15 <dbl>, ADAMTS16 <dbl>,
#> #   ADAMTS8 <dbl>, ADCYAP1R1 <dbl>, ADGRE2 <dbl>, ADGRE5 <dbl>, ADGRG1 <dbl>,
#> #   ADGRG2 <dbl>, ADH4 <dbl>, ADM <dbl>, AGER <dbl>, AGR2 <dbl>, AGR3 <dbl>,
#> #   AGRN <dbl>, AGRP <dbl>, AGXT <dbl>, AHCY <dbl>, AHSP <dbl>, AIF1 <dbl>,
#> #   AIFM1 <dbl>, AK1 <dbl>, AKR1B1 <dbl>, AKR1C4 <dbl>, AKT1S1 <dbl>, …
…
