HDAnalyzeR • HDAnalyzeR
…
#> [1] "Summary:"
#> [1] "Note: In case of long output, only the first 10 rows are shown. To see the rest display the object with view()"
#> [1] "Number of samples: 586"
#> [1] "Number of variables: 100"
#> [1] "--------------------------------------"
#> [1] "character : 1"
#> [1] "numeric : 100"
#> [1] "--------------------------------------"
#> [1] "NA percentage in each column:"
#> # A tibble: 91 × 2
#>    column   na_percentage
#>    <chr>            <dbl>
#>  1 ACE2               6.1
#>  2 ACTA2              6.1
#>  3 ACTN4              6.1
#>  4 ADAM15             6.1
#>  5 ADAMTS16           6.1
#>  6 ADH4               6.1
#>  7 AKR1C4             6.1
#>  8 AMBN               6.1
#>  9 AMN                6.1
#> 10 AOC1               6.1
#> # ℹ 81 more rows
#> [1] "--------------------------------------"
#> [1] "NA percentage in each row:"
#> # A tibble: 144 × 2
#>    DAid    na_percentage
#>    <chr>           <dbl>
#>  1 DA00450          57.4
#>  2 DA00482          53.5
#>  3 DA00542          53.5
#>  4 DA00003          50.5
#>  5 DA00463          46.5
#>  6 DA00116          43.6
#>  7 DA00475          42.6
#>  8 DA00578          42.6
#>  9 DA00443          41.6
#> 10 DA00476          35.6
#> # ℹ 134 more rows
#> [1] "--------------------------------------"
#> [1] "Normality test results:"
#> # A tibble: 100 × 4
#>    Protein    p_value adj.P.Val is_normal
#>    <chr>        <dbl>     <dbl> <lgl>    
#>  1 ARID4B    2.00e-21  1.64e-19 FALSE    
#>  2 ARTN      4.91e-21  1.64e-19 FALSE    
#>  3 ATF2      4.01e-21  1.64e-19 FALSE    
#>  4 AZU1      6.02e-20  1.51e-18 FALSE    
#>  5 APBB1IP   1.64e-16  3.27e-15 FALSE    
#>  6 ADA       2.81e-15  4.69e-14 FALSE    
#>  7 ADCYAP1R1 5.75e-15  8.21e-14 FALSE    
#>  8 AOC1      2.17e-14  2.71e-13 FALSE    
#>  9 AREG      7.47e-14  8.30e-13 FALSE    
#> 10 ADGRG1    1.39e-12  1.39e-11 FALSE    
#> # ℹ 90 more rows
…
#> [1] "Note: In case of long output, only the first 10 rows are shown. To see the rest display the object with view()"
#> [1] "Number of samples: 586"
#> [1] "Number of variables: 8"
#> [1] "--------------------------------------"
#> [1] "character : 7"
#> [1] "numeric : 2"
#> [1] "--------------------------------------"
#> [1] "NA percentage in each column:"
#> # A tibble: 1 × 2
#>   column na_percentage
#>   <chr>          <dbl>
#> 1 Grade           91.5
#> [1] "--------------------------------------"
#> [1] "NA percentage in each row:"
#> # A tibble: 536 × 2
#>    DAid    na_percentage
#>    <chr>           <dbl>
#>  1 DA00001          11.1
#>  2 DA00002          11.1
#>  3 DA00003          11.1
#>  4 DA00004          11.1
#>  5 DA00005          11.1
#>  6 DA00006          11.1
#>  7 DA00007          11.1
#>  8 DA00008          11.1
#>  9 DA00009          11.1
#> 10 DA00010          11.1
#> # ℹ 526 more rows
…
de_res_aml <- do_limma(imputed_data, 
                       clean_metadata,
                       case = "AML",
                       control = c("BRC", "PRC"),
                       correct = c("Sex", "Age"),
                       correct_type = c("factor", "numeric"),
                       only_female = "BRC",
                       only_male = "PRC")
#> Comparing AML with BRC, PRC.
#> Warning in do_limma_de(join_data, variable, case, control, correct,
#> correct_type, : 436 rows were removed because they contain NAs in Disease or
#> Sex, Age!

de_res_aml$de_results
#> # A tibble: 100 × 11
#>    Assay    logFC   CI.L   CI.R AveExpr     t  P.Value adj.P.Val     B Disease
#>    <chr>    <dbl>  <dbl>  <dbl>   <dbl> <dbl>    <dbl>     <dbl> <dbl> <chr>  
#>  1 ADA      1.50   1.20   1.81  1.25     9.75 7.95e-18  7.95e-16 29.8  AML    
#>  2 APEX1    1.84   1.43   2.24  0.583    8.97 8.98e-16  4.49e-14 25.2  AML    
#>  3 AZU1     1.69   1.29   2.08  0.537    8.46 1.81e-14  6.04e-13 22.2  AML    
#>  4 APBB1IP  1.19   0.840  1.53  0.00561  6.77 2.54e-10  6.35e- 9 12.8  AML    
#>  5 ANGPT1  -1.66  -2.18  -1.13  1.38    -6.23 4.11e- 9  8.22e- 8 10.1  AML    
#>  6 ARTN     0.921  0.615  1.23  0.648    5.95 1.74e- 8  2.89e- 7  8.67 AML    
#>  7 ACTA2    0.711  0.458  0.964 1.52     5.55 1.21e- 7  1.73e- 6  6.77 AML    
#>  8 ADGRG1   1.30   0.827  1.77  1.80     5.44 2.08e- 7  2.60e- 6  6.25 AML    
#>  9 ADAMTS8 -0.809 -1.11  -0.506 0.420   -5.27 4.55e- 7  5.06e- 6  5.47 AML    
#> 10 ANGPT2   0.741  0.459  1.02  1.06     5.18 6.73e- 7  6.73e- 6  5.10 AML    
#> # ℹ 90 more rows
#> # ℹ 1 more variable: sig <chr>
…
lasso_res_aml$var_imp_res$features
#> # A tibble: 23 × 4
#>    Variable Importance Sign  Scaled_Importance
#>    <fct>         <dbl> <chr>             <dbl>
#>  1 ADGRG1        2.23  POS               100  
#>  2 APEX1         1.88  POS                84.3
#>  3 ABL1          1.26  POS                56.8
#>  4 ANGPT1        1.15  NEG                51.6
#>  5 ALDH1A1       1.11  NEG                49.7
#>  6 ANXA11        1.07  NEG                48.3
#>  7 ADM           1.04  POS                46.8
#>  8 ADGRG2        0.988 NEG                44.4
#>  9 AGR3          0.890 NEG                40.0
#> 10 AHCY          0.654 POS                29.4
#> # ℹ 13 more rows
…
